<?xml version="1.0" encoding="UTF-8" standalone="no"?>
<svg
   xmlns:dc="http://purl.org/dc/elements/1.1/"
   xmlns:cc="http://creativecommons.org/ns#"
   xmlns:rdf="http://www.w3.org/1999/02/22-rdf-syntax-ns#"
   xmlns:svg="http://www.w3.org/2000/svg"
   xmlns="http://www.w3.org/2000/svg"
   xmlns:sodipodi="http://sodipodi.sourceforge.net/DTD/sodipodi-0.dtd"
   xmlns:inkscape="http://www.inkscape.org/namespaces/inkscape"
   version="1.1"
   viewBox="0 0 41.999996 9.9999992"
   id="svg885"
   sodipodi:docname="lang-arrow.svg"
   width="41.999996"
   height="10"
   inkscape:version="1.0.2 (1.0.2+r75+1)">
  <metadata
     id="metadata891">
    <rdf:RDF>
      <cc:Work
         rdf:about="">
        <dc:format>image/svg+xml</dc:format>
        <dc:type
           rdf:resource="http://purl.org/dc/dcmitype/StillImage" />
        <dc:title></dc:title>
      </cc:Work>
    </rdf:RDF>
  </metadata>
  <defs
     id="defs889" />
  <sodipodi:namedview
     pagecolor="#ffffff"
     bordercolor="#666666"
     borderopacity="1"
     objecttolerance="10"
     gridtolerance="10"
     guidetolerance="10"
     inkscape:pageopacity="0"
     inkscape:pageshadow="2"
     inkscape:window-width="1848"
     inkscape:window-height="1016"
     id="namedview887"
     showgrid="false"
     fit-margin-top="0"
     fit-margin-left="0"
     fit-margin-right="0"
     fit-margin-bottom="0"
     inkscape:zoom="23.646042"
     inkscape:cx="18.791886"
     inkscape:cy="4.6330396"
     inkscape:window-x="0"
     inkscape:window-y="0"
     inkscape:window-maximized="1"
     inkscape:current-layer="svg885" />
  <g
     transform="matrix(-0.04951837,0,0,-0.05284295,36.99765,12.047981)"
     style="fill:#ffffff;fill-opacity:1;stroke:none;stroke-width:7.38857;stroke-miterlimit:4;stroke-dasharray:none;stroke-opacity:1"
     id="g883">
    <path
       d="M 747.15,161.34 H 62.87 v 66.656 l -163.89,-94.62 163.89,-94.62 v 66.657 h 682.96 z"
       style="fill:#ffffff;fill-opacity:1;stroke:none;stroke-width:7.38857;stroke-miterlimit:4;stroke-dasharray:none;stroke-opacity:1"
       id="path881" />
  </g>
</svg>
