<?xml version="1.0" encoding="UTF-8" standalone="no"?>
<svg
   xmlns:dc="http://purl.org/dc/elements/1.1/"
   xmlns:cc="http://creativecommons.org/ns#"
   xmlns:rdf="http://www.w3.org/1999/02/22-rdf-syntax-ns#"
   xmlns:svg="http://www.w3.org/2000/svg"
   xmlns="http://www.w3.org/2000/svg"
   version="1.1"
   id="Capa_1"
   x="0px"
   y="0px"
   width="159.71782"
   height="35.635464"
   viewBox="0 0 159.71782 35.635465"
   xml:space="preserve"><metadata
   id="metadata41"><rdf:RDF><cc:Work
       rdf:about=""><dc:format>image/svg+xml</dc:format><dc:type
         rdf:resource="http://purl.org/dc/dcmitype/StillImage" /><dc:title></dc:title></cc:Work></rdf:RDF></metadata><defs
   id="defs39" />
<g
   id="g4"
   transform="matrix(-0.18830831,0,0,-0.18830831,140.69404,42.93373)"
   style="fill:#673bb7;fill-opacity:1;stroke-width:5.31044">
	<path
   d="M 747.14727,161.341 H 62.86336 v 66.656 l -81.941007,-47.31 -81.947003,-47.31 81.947003,-47.31 81.942007,-47.31 v 66.657 h 682.96313 z"
   id="path2"
   style="fill:#673bb7;fill-opacity:1;stroke-width:5.31044" />
</g>
<g
   id="g6"
   transform="translate(-182.92301,-178.17967)">
</g>
<g
   id="g8"
   transform="translate(-182.92301,-178.17967)">
</g>
<g
   id="g10"
   transform="translate(-182.92301,-178.17967)">
</g>
<g
   id="g12"
   transform="translate(-182.92301,-178.17967)">
</g>
<g
   id="g14"
   transform="translate(-182.92301,-178.17967)">
</g>
<g
   id="g16"
   transform="translate(-182.92301,-178.17967)">
</g>
<g
   id="g18"
   transform="translate(-182.92301,-178.17967)">
</g>
<g
   id="g20"
   transform="translate(-182.92301,-178.17967)">
</g>
<g
   id="g22"
   transform="translate(-182.92301,-178.17967)">
</g>
<g
   id="g24"
   transform="translate(-182.92301,-178.17967)">
</g>
<g
   id="g26"
   transform="translate(-182.92301,-178.17967)">
</g>
<g
   id="g28"
   transform="translate(-182.92301,-178.17967)">
</g>
<g
   id="g30"
   transform="translate(-182.92301,-178.17967)">
</g>
<g
   id="g32"
   transform="translate(-182.92301,-178.17967)">
</g>
<g
   id="g34"
   transform="translate(-182.92301,-178.17967)">
</g>
</svg>
